StartFontMetrics 4.1
FontName SerpentineD-Bold
FullName SerpentineDBol
Notice URW Software, Copyright 1994 by URW
EncodingScheme FontSpecific
FamilyName SerpentineDBol
Weight Regular
Version Version 001.005
Characters 306
ItalicAngle 0.0
Ascender 974
Descender -227
UnderlineThickness 125
UnderlinePosition -105
IsFixedPitch false
FontBBox -133 -251 1407 898
StartCharMetrics 344
C 0 ; WX 250 ; N .notdef ; B 25 0 225 667 ;
C 1 ; WX 250 ; N .notdef ; B 25 0 225 667 ;
C 2 ; WX 250 ; N .notdef ; B 25 0 225 667 ;
C 3 ; WX 250 ; N .notdef ; B 25 0 225 667 ;
C 4 ; WX 250 ; N .notdef ; B 25 0 225 667 ;
C 5 ; WX 250 ; N .notdef ; B 25 0 225 667 ;
C 6 ; WX 250 ; N .notdef ; B 25 0 225 667 ;
C 7 ; WX 250 ; N .notdef ; B 25 0 225 667 ;
C 8 ; WX 250 ; N .notdef ; B 25 0 225 667 ;
C 9 ; WX 250 ; N .notdef ; B 25 0 225 667 ;
C 10 ; WX 250 ; N .notdef ; B 25 0 225 667 ;
C 11 ; WX 250 ; N .notdef ; B 25 0 225 667 ;
C 12 ; WX 250 ; N .notdef ; B 25 0 225 667 ;
C 13 ; WX 250 ; N .notdef ; B 25 0 225 667 ;
C 14 ; WX 250 ; N .notdef ; B 25 0 225 667 ;
C 15 ; WX 250 ; N .notdef ; B 25 0 225 667 ;
C 16 ; WX 250 ; N .notdef ; B 25 0 225 667 ;
C 17 ; WX 250 ; N .notdef ; B 25 0 225 667 ;
C 18 ; WX 250 ; N .notdef ; B 25 0 225 667 ;
C 19 ; WX 250 ; N .notdef ; B 25 0 225 667 ;
C 20 ; WX 250 ; N .notdef ; B 25 0 225 667 ;
C 21 ; WX 250 ; N .notdef ; B 25 0 225 667 ;
C 22 ; WX 250 ; N .notdef ; B 25 0 225 667 ;
C 23 ; WX 250 ; N .notdef ; B 25 0 225 667 ;
C 24 ; WX 250 ; N .notdef ; B 25 0 225 667 ;
C 25 ; WX 250 ; N .notdef ; B 25 0 225 667 ;
C 26 ; WX 250 ; N .notdef ; B 25 0 225 667 ;
C 27 ; WX 250 ; N .notdef ; B 25 0 225 667 ;
C 28 ; WX 250 ; N .notdef ; B 25 0 225 667 ;
C 29 ; WX 250 ; N .notdef ; B 25 0 225 667 ;
C 30 ; WX 250 ; N .notdef ; B 25 0 225 667 ;
C 31 ; WX 250 ; N .notdef ; B 25 0 225 667 ;
C 32 ; WX 250 ; N space ; B 100 0 353 667 ;
C 33 ; WX 452 ; N exclam ; B 100 0 353 667 ;
C 34 ; WX 409 ; N quotedbl ; B 40 398 369 667 ;
C 35 ; WX 809 ; N numbersign ; B 65 0 743 667 ;
C 36 ; WX 809 ; N dollar ; B 82 -73 726 740 ;
C 37 ; WX 988 ; N percent ; B 33 0 957 667 ;
C 38 ; WX 909 ; N ampersand ; B 33 0 876 667 ;
C 39 ; WX 222 ; N quotesingle ; B 40 398 182 667 ;
C 40 ; WX 346 ; N parenleft ; B 93 -110 332 677 ;
C 41 ; WX 346 ; N parenright ; B 13 -110 252 677 ;
C 42 ; WX 500 ; N asterisk ; B 63 311 438 672 ;
C 43 ; WX 808 ; N plus ; B 116 67 692 612 ;
C 44 ; WX 383 ; N comma ; B 67 -137 316 179 ;
C 45 ; WX 354 ; N hyphen ; B 0 194 354 319 ;
C 46 ; WX 384 ; N period ; B 67 0 318 178 ;
C 47 ; WX 296 ; N slash ; B -8 -110 285 667 ;
C 48 ; WX 809 ; N zero ; B 43 0 765 667 ;
C 49 ; WX 809 ; N one ; B 172 0 583 667 ;
C 50 ; WX 809 ; N two ; B 63 0 765 667 ;
C 51 ; WX 809 ; N three ; B 68 0 729 667 ;
C 52 ; WX 809 ; N four ; B 8 0 801 667 ;
C 53 ; WX 809 ; N five ; B 52 0 750 667 ;
C 54 ; WX 809 ; N six ; B 58 0 753 667 ;
C 55 ; WX 809 ; N seven ; B 65 0 744 667 ;
C 56 ; WX 809 ; N eight ; B 58 0 751 667 ;
C 57 ; WX 809 ; N nine ; B 58 0 750 667 ;
C 58 ; WX 384 ; N colon ; B 67 0 318 493 ;
C 59 ; WX 384 ; N semicolon ; B 67 -137 318 493 ;
C 60 ; WX 809 ; N less ; B 188 -1 621 679 ;
C 61 ; WX 808 ; N equal ; B 116 183 692 497 ;
C 62 ; WX 809 ; N greater ; B 188 -1 621 679 ;
C 63 ; WX 820 ; N question ; B 73 0 740 667 ;
C 64 ; WX 911 ; N at ; B 40 0 875 667 ;
C 65 ; WX 821 ; N A ; B -33 0 834 667 ;
C 66 ; WX 794 ; N B ; B 33 0 750 667 ;
C 67 ; WX 667 ; N C ; B 43 0 644 667 ;
C 68 ; WX 797 ; N D ; B 33 0 754 667 ;
C 69 ; WX 666 ; N E ; B 33 0 656 667 ;
C 70 ; WX 640 ; N F ; B 33 0 637 667 ;
C 71 ; WX 782 ; N G ; B 43 0 765 667 ;
C 72 ; WX 823 ; N H ; B 33 0 789 667 ;
C 73 ; WX 376 ; N I ; B 33 0 342 667 ;
C 74 ; WX 591 ; N J ; B -27 0 572 667 ;
C 75 ; WX 820 ; N K ; B 33 0 839 667 ;
C 76 ; WX 638 ; N L ; B 33 0 637 667 ;
C 77 ; WX 1002 ; N M ; B 27 0 968 667 ;
C 78 ; WX 800 ; N N ; B 23 0 780 667 ;
C 79 ; WX 814 ; N O ; B 43 0 771 667 ;
C 80 ; WX 778 ; N P ; B 33 0 755 667 ;
C 81 ; WX 815 ; N Q ; B 43 -88 772 667 ;
C 82 ; WX 803 ; N R ; B 33 0 803 667 ;
C 83 ; WX 701 ; N S ; B 28 0 672 667 ;
C 84 ; WX 666 ; N T ; B 0 0 667 667 ;
C 85 ; WX 800 ; N U ; B 25 0 781 667 ;
C 86 ; WX 770 ; N V ; B -8 0 798 667 ;
C 87 ; WX 1087 ; N W ; B -8 0 1109 667 ;
C 88 ; WX 803 ; N X ; B -26 0 816 667 ;
C 89 ; WX 748 ; N Y ; B -19 0 771 667 ;
C 90 ; WX 702 ; N Z ; B 0 0 702 667 ;
C 91 ; WX 346 ; N bracketleft ; B 93 -110 332 677 ;
C 92 ; WX 296 ; N backslash ; B 12 -110 305 667 ;
C 93 ; WX 346 ; N bracketright ; B 13 -110 252 677 ;
C 94 ; WX 500 ; N asciicircum ; B 0 328 500 672 ;
C 95 ; WX 500 ; N underscore ; B 0 -168 500 -42 ;
C 96 ; WX 500 ; N grave ; B 93 541 327 700 ;
C 97 ; WX 744 ; N a ; B 37 0 712 493 ;
C 98 ; WX 737 ; N b ; B 30 0 701 667 ;
C 99 ; WX 606 ; N c ; B 37 0 589 496 ;
C 100 ; WX 737 ; N d ; B 37 0 707 667 ;
C 101 ; WX 722 ; N e ; B 37 0 687 499 ;
C 102 ; WX 480 ; N f ; B -3 0 534 677 ;
C 103 ; WX 743 ; N g ; B 37 -190 711 493 ;
C 104 ; WX 755 ; N h ; B 30 0 723 667 ;
C 105 ; WX 352 ; N i ; B 35 0 316 667 ;
C 106 ; WX 413 ; N j ; B -133 -190 370 667 ;
C 107 ; WX 738 ; N k ; B 30 0 757 667 ;
C 108 ; WX 341 ; N l ; B 30 0 311 667 ;
C 109 ; WX 1161 ; N m ; B 35 0 1129 493 ;
C 110 ; WX 757 ; N n ; B 35 0 726 493 ;
C 111 ; WX 742 ; N o ; B 37 -8 707 493 ;
C 112 ; WX 739 ; N p ; B 32 -173 703 493 ;
C 113 ; WX 739 ; N q ; B 37 -173 708 493 ;
C 114 ; WX 528 ; N r ; B 35 0 528 494 ;
C 115 ; WX 672 ; N s ; B 25 0 650 493 ;
C 116 ; WX 543 ; N t ; B 0 0 550 605 ;
C 117 ; WX 758 ; N u ; B 32 0 724 493 ;
C 118 ; WX 654 ; N v ; B -23 0 671 493 ;
C 119 ; WX 957 ; N w ; B -10 0 974 493 ;
C 120 ; WX 704 ; N x ; B -23 0 727 493 ;
C 121 ; WX 750 ; N y ; B 32 -190 707 493 ;
C 122 ; WX 668 ; N z ; B 0 0 668 493 ;
C 123 ; WX 346 ; N braceleft ; B 35 -110 339 677 ;
C 124 ; WX 500 ; N bar ; B 140 -167 360 667 ;
C 125 ; WX 346 ; N braceright ; B 7 -110 311 677 ;
C 126 ; WX 667 ; N asciitilde ; B 91 525 579 775 ;
C 127 ; WX 250 ; N .notdef ; B 25 0 225 667 ;
C 128 ; WX 250 ; N .notdef ; B 25 0 225 667 ;
C 129 ; WX 250 ; N .notdef ; B 25 0 225 667 ;
C 130 ; WX 383 ; N quotesinglbase ; B 67 351 316 667 ;
C 131 ; WX 809 ; N florin ; B 22 -133 759 742 ;
C 132 ; WX 672 ; N quotedblbase ; B 67 -137 606 179 ;
C 133 ; WX 1152 ; N ellipsis ; B 67 0 1086 178 ;
C 134 ; WX 809 ; N dagger ; B 114 -110 694 667 ;
C 135 ; WX 809 ; N daggerdbl ; B 114 -110 694 667 ;
C 136 ; WX 500 ; N circumflex ; B 47 540 454 700 ;
C 137 ; WX 1439 ; N perthousand ; B 33 0 1408 667 ;
C 138 ; WX 701 ; N Scaron ; B 28 0 672 867 ;
C 139 ; WX 269 ; N guilsinglleft ; B 43 21 235 473 ;
C 140 ; WX 1119 ; N OE ; B 43 0 1109 667 ;
C 141 ; WX 250 ; N .notdef ; B 25 0 225 667 ;
C 142 ; WX 702 ; N Zcaron ; B 0 0 702 867 ;
C 143 ; WX 250 ; N .notdef ; B 25 0 225 667 ;
C 144 ; WX 672 ; N quotedblbase ; B 67 -137 606 179 ;
C 145 ; WX 383 ; N quoteleft ; B 67 351 316 667 ;
C 146 ; WX 383 ; N quoteright ; B 67 -137 316 179 ;
C 147 ; WX 672 ; N quotedblleft ; B 67 351 606 667 ;
C 148 ; WX 672 ; N quotedblright ; B 67 351 606 667 ;
C 149 ; WX 667 ; N bullet ; B 196 200 473 478 ;
C 150 ; WX 809 ; N endash ; B 79 194 729 319 ;
C 151 ; WX 1062 ; N emdash ; B 0 194 1062 319 ;
C 152 ; WX 500 ; N tilde ; B 32 539 468 701 ;
C 153 ; WX 1037 ; N trademark ; B 10 287 1010 667 ;
C 154 ; WX 672 ; N scaron ; B 25 0 650 700 ;
C 155 ; WX 269 ; N guilsinglright ; B 33 21 225 473 ;
C 156 ; WX 1149 ; N oe ; B 37 0 1112 494 ;
C 157 ; WX 250 ; N .notdef ; B 25 0 225 667 ;
C 158 ; WX 668 ; N zcaron ; B 0 0 668 700 ;
C 159 ; WX 748 ; N Ydieresis ; B -19 0 771 861 ;
C 160 ; WX 250 ; N nbspace ; B 140 -167 360 667 ;
C 161 ; WX 452 ; N exclamdown ; B 100 -173 353 493 ;
C 162 ; WX 809 ; N cent ; B 165 0 658 667 ;
C 163 ; WX 809 ; N sterling ; B 49 0 759 667 ;
C 164 ; WX 809 ; N currency ; B 119 48 689 619 ;
C 165 ; WX 809 ; N yen ; B 26 0 795 667 ;
C 166 ; WX 500 ; N brokenbar ; B 140 -167 360 667 ;
C 167 ; WX 809 ; N section ; B 118 -110 690 667 ;
C 168 ; WX 500 ; N dieresis ; B 62 543 438 694 ;
C 169 ; WX 814 ; N copyright ; B 43 0 771 667 ;
C 170 ; WX 533 ; N ordfeminine ; B 50 310 483 667 ;
C 171 ; WX 447 ; N guillemotleft ; B 43 21 414 473 ;
C 172 ; WX 500 ; N logicalnot ; B 33 0 466 303 ;
C 173 ; WX 354 ; N sfthyphen ; B 0 194 354 319 ;
C 174 ; WX 814 ; N registered ; B 43 0 771 667 ;
C 175 ; WX 500 ; N overscore ; B 0 772 500 898 ;
C 176 ; WX 331 ; N degree ; B 40 464 291 667 ;
C 177 ; WX 808 ; N plusminus ; B 116 -10 692 677 ;
C 178 ; WX 518 ; N twosuperior ; B 44 267 487 667 ;
C 179 ; WX 518 ; N threesuperior ; B 47 263 465 671 ;
C 180 ; WX 500 ; N acute ; B 173 541 407 700 ;
C 181 ; WX 500 ; N mu ; B 12 -174 488 480 ;
C 182 ; WX 809 ; N paragraph ; B 96 -110 713 667 ;
C 183 ; WX 384 ; N middot ; B 67 158 318 336 ;
C 184 ; WX 500 ; N cedilla ; B 141 -223 386 0 ;
C 185 ; WX 518 ; N onesuperior ; B 112 267 376 667 ;
C 186 ; WX 533 ; N ordmasculine ; B 50 310 483 667 ;
C 187 ; WX 447 ; N guillemotright ; B 33 21 403 473 ;
C 188 ; WX 1131 ; N onequarter ; B 112 0 1121 667 ;
C 189 ; WX 1131 ; N onehalf ; B 112 0 1100 667 ;
C 190 ; WX 1131 ; N threequarters ; B 47 0 1121 671 ;
C 191 ; WX 820 ; N questiondown ; B 80 -173 747 493 ;
C 192 ; WX 821 ; N Agrave ; B -33 0 834 867 ;
C 193 ; WX 821 ; N Aacute ; B -33 0 834 867 ;
C 194 ; WX 821 ; N Acircumflex ; B -33 0 834 867 ;
C 195 ; WX 821 ; N Atilde ; B -33 0 834 868 ;
C 196 ; WX 821 ; N Adieresis ; B -33 0 834 861 ;
C 197 ; WX 821 ; N Aring ; B -33 0 834 874 ;
C 198 ; WX 1005 ; N AE ; B -13 0 996 667 ;
C 199 ; WX 667 ; N Ccedilla ; B 43 -227 644 667 ;
C 200 ; WX 666 ; N Egrave ; B 33 0 656 867 ;
C 201 ; WX 666 ; N Eacute ; B 33 0 656 867 ;
C 202 ; WX 666 ; N Ecircumflex ; B 33 0 656 867 ;
C 203 ; WX 666 ; N Edieresis ; B 33 0 656 861 ;
C 204 ; WX 376 ; N Igrave ; B 33 0 342 867 ;
C 205 ; WX 376 ; N Iacute ; B 33 0 342 867 ;
C 206 ; WX 376 ; N Icircumflex ; B 1 0 375 867 ;
C 207 ; WX 376 ; N Idieresis ; B 33 0 343 858 ;
C 208 ; WX 797 ; N Eth ; B 3 0 754 667 ;
C 209 ; WX 800 ; N Ntilde ; B 23 0 780 868 ;
C 210 ; WX 814 ; N Ograve ; B 43 0 771 867 ;
C 211 ; WX 814 ; N Oacute ; B 43 0 771 867 ;
C 212 ; WX 814 ; N Ocircumflex ; B 43 0 771 867 ;
C 213 ; WX 814 ; N Otilde ; B 43 0 771 868 ;
C 214 ; WX 814 ; N Odieresis ; B 43 0 771 861 ;
C 215 ; WX 809 ; N multiply ; B 134 70 674 610 ;
C 216 ; WX 814 ; N Oslash ; B 43 -67 771 733 ;
C 217 ; WX 800 ; N Ugrave ; B 25 0 781 867 ;
C 218 ; WX 800 ; N Uacute ; B 25 0 781 867 ;
C 219 ; WX 800 ; N Ucircumflex ; B 25 0 781 867 ;
C 220 ; WX 800 ; N Udieresis ; B 25 0 781 861 ;
C 221 ; WX 748 ; N Yacute ; B -19 0 771 867 ;
C 222 ; WX 781 ; N Thorn ; B 33 0 761 667 ;
C 223 ; WX 750 ; N germandbls ; B -7 0 713 667 ;
C 224 ; WX 744 ; N agrave ; B 37 0 712 700 ;
C 225 ; WX 744 ; N aacute ; B 37 0 712 700 ;
C 226 ; WX 744 ; N acircumflex ; B 37 0 712 700 ;
C 227 ; WX 744 ; N atilde ; B 37 0 712 701 ;
C 228 ; WX 744 ; N adieresis ; B 37 0 712 694 ;
C 229 ; WX 744 ; N aring ; B 37 0 712 707 ;
C 230 ; WX 1132 ; N ae ; B 37 0 1095 493 ;
C 231 ; WX 606 ; N ccedilla ; B 37 -223 589 493 ;
C 232 ; WX 722 ; N egrave ; B 37 0 687 700 ;
C 233 ; WX 722 ; N eacute ; B 37 0 687 700 ;
C 234 ; WX 722 ; N ecircumflex ; B 37 0 687 700 ;
C 235 ; WX 722 ; N edieresis ; B 37 0 687 694 ;
C 236 ; WX 352 ; N igrave ; B 26 0 316 700 ;
C 237 ; WX 352 ; N iacute ; B 35 0 329 700 ;
C 238 ; WX 351 ; N icircumflex ; B -4 0 355 700 ;
C 239 ; WX 352 ; N idieresis ; B 21 0 331 691 ;
C 240 ; WX 742 ; N eth ; B 37 -8 707 667 ;
C 241 ; WX 757 ; N ntilde ; B 35 0 726 701 ;
C 242 ; WX 742 ; N ograve ; B 37 -8 707 700 ;
C 243 ; WX 742 ; N oacute ; B 37 -8 707 700 ;
C 244 ; WX 742 ; N ocircumflex ; B 37 -8 707 700 ;
C 245 ; WX 742 ; N otilde ; B 37 -8 707 701 ;
C 246 ; WX 742 ; N odieresis ; B 37 -8 707 694 ;
C 247 ; WX 808 ; N divide ; B 116 82 692 598 ;
C 248 ; WX 742 ; N oslash ; B 37 -67 707 560 ;
C 249 ; WX 758 ; N ugrave ; B 32 0 724 700 ;
C 250 ; WX 758 ; N uacute ; B 32 0 724 700 ;
C 251 ; WX 758 ; N ucircumflex ; B 32 0 724 700 ;
C 252 ; WX 758 ; N udieresis ; B 32 0 724 694 ;
C 253 ; WX 750 ; N yacute ; B 32 -190 707 700 ;
C 254 ; WX 739 ; N thorn ; B 32 -173 703 667 ;
C 255 ; WX 750 ; N ydieresis ; B 32 -190 707 694 ;
C -1 ; WX 0 ; N .null ; B 100 0 353 667 ;
C -1 ; WX 250 ; N _d_2 ; B 100 0 353 667 ;
C -1 ; WX 808 ; N notequal ; B 116 52 692 627 ;
C -1 ; WX 667 ; N infinity ; B 16 174 650 504 ;
C -1 ; WX 809 ; N lessequal ; B 188 -10 621 692 ;
C -1 ; WX 809 ; N greaterequal ; B 188 -10 621 692 ;
C -1 ; WX 500 ; N partialdiff ; B 3 -8 494 659 ;
C -1 ; WX 667 ; N summation ; B 33 -250 652 750 ;
C -1 ; WX 667 ; N product ; B 11 -250 655 750 ;
C -1 ; WX 682 ; N pi ; B 21 0 661 480 ;
C -1 ; WX 500 ; N integral ; B -1 -251 501 750 ;
C -1 ; WX 667 ; N Omega ; B 22 0 645 683 ;
C -1 ; WX 667 ; N radical ; B 0 0 667 827 ;
C -1 ; WX 809 ; N approxequal ; B 160 86 648 592 ;
C -1 ; WX 673 ; N Delta ; B 10 0 663 667 ;
C -1 ; WX 809 ; N _d_172 ; B -33 0 834 867 ;
C -1 ; WX 667 ; N lozenge ; B 74 -26 593 693 ;
C -1 ; WX 96 ; N fraction ; B -37 0 133 667 ;
C -1 ; WX 770 ; N fi ; B -3 0 734 677 ;
C -1 ; WX 766 ; N fl ; B -3 0 734 678 ;
C -1 ; WX 384 ; N periodcentered ; B 67 158 318 336 ;
C -1 ; WX 667 ; N apple ; B 32 -28 642 691 ;
C -1 ; WX 352 ; N dotlessi ; B 35 0 316 493 ;
C -1 ; WX 500 ; N macron ; B 40 561 460 667 ;
C -1 ; WX 500 ; N breve ; B 53 539 447 700 ;
C -1 ; WX 500 ; N dotaccent ; B 172 543 328 694 ;
C -1 ; WX 500 ; N ring ; B 90 540 410 707 ;
C -1 ; WX 500 ; N hungarumlaut ; B 118 541 518 700 ;
C -1 ; WX 500 ; N ogonek ; B 281 -177 500 0 ;
C -1 ; WX 500 ; N caron ; B 47 540 454 700 ;
C -1 ; WX 250 ; N _d_226 ; B 140 -167 360 667 ;
C -1 ; WX 250 ; N _d_227 ; B 140 -167 360 667 ;
C -1 ; WX 250 ; N _d_228 ; B 140 -167 360 667 ;
C -1 ; WX 250 ; N _d_229 ; B 140 -167 360 667 ;
C -1 ; WX 250 ; N _d_230 ; B 140 -167 360 667 ;
C -1 ; WX 250 ; N _d_231 ; B 140 -167 360 667 ;
C -1 ; WX 250 ; N _d_232 ; B 140 -167 360 667 ;
C -1 ; WX 250 ; N _d_233 ; B 140 -167 360 667 ;
C -1 ; WX 250 ; N _d_234 ; B 140 -167 360 667 ;
C -1 ; WX 250 ; N _d_235 ; B 140 -167 360 667 ;
C -1 ; WX 250 ; N _d_236 ; B 140 -167 360 667 ;
C -1 ; WX 250 ; N _d_237 ; B 140 -167 360 667 ;
C -1 ; WX 250 ; N _d_238 ; B 140 -167 360 667 ;
C -1 ; WX 250 ; N _d_239 ; B 140 -167 360 667 ;
C -1 ; WX 250 ; N _d_240 ; B 140 -167 360 667 ;
C -1 ; WX 250 ; N _d_241 ; B 140 -167 360 667 ;
C -1 ; WX 250 ; N _d_242 ; B 140 -167 360 667 ;
C -1 ; WX 250 ; N _d_243 ; B 140 -167 360 667 ;
C -1 ; WX 250 ; N _d_244 ; B 140 -167 360 667 ;
C -1 ; WX 250 ; N _d_245 ; B 140 -167 360 667 ;
C -1 ; WX 250 ; N _d_246 ; B 140 -167 360 667 ;
C -1 ; WX 250 ; N _d_247 ; B 140 -167 360 667 ;
C -1 ; WX 250 ; N _d_248 ; B 140 -167 360 667 ;
C -1 ; WX 250 ; N _d_249 ; B 140 -167 360 667 ;
C -1 ; WX 250 ; N _d_250 ; B 140 -167 360 667 ;
C -1 ; WX 250 ; N _d_251 ; B 140 -167 360 667 ;
C -1 ; WX 250 ; N _d_252 ; B 140 -167 360 667 ;
C -1 ; WX 250 ; N _d_253 ; B 140 -167 360 667 ;
C -1 ; WX 250 ; N _d_254 ; B 140 -167 360 667 ;
C -1 ; WX 250 ; N _d_255 ; B 140 -167 360 667 ;
C -1 ; WX 250 ; N _d_256 ; B 140 -167 360 667 ;
C -1 ; WX 250 ; N _d_257 ; B 140 -167 360 667 ;
C -1 ; WX 667 ; N Cacute ; B 43 0 644 867 ;
C -1 ; WX 606 ; N cacute ; B 37 0 589 700 ;
C -1 ; WX 667 ; N Ccaron ; B 43 0 644 867 ;
C -1 ; WX 606 ; N ccaron ; B 37 0 589 700 ;
C -1 ; WX 737 ; N dmacron ; B 37 0 737 667 ;
C -1 ; WX 782 ; N Gbreve ; B 43 0 765 867 ;
C -1 ; WX 743 ; N gbreve ; B 37 -190 711 700 ;
C -1 ; WX 376 ; N Idot ; B 33 0 342 861 ;
C -1 ; WX 638 ; N Lslash ; B 3 0 638 667 ;
C -1 ; WX 348 ; N lslash ; B 3 0 345 667 ;
C -1 ; WX 701 ; N Scedilla ; B 28 -227 672 667 ;
C -1 ; WX 672 ; N scedilla ; B 25 -223 647 493 ;
C -1 ; WX 994 ; N franc ; B 28 0 971 667 ;
C -1 ; WX 808 ; N minus ; B 116 277 692 403 ;
C -1 ; WX 500 ; N _d_294 ; B 95 710 405 858 ;
C -1 ; WX 500 ; N _d_295 ; B 172 710 328 861 ;
C -1 ; WX 500 ; N _d_296 ; B 53 706 447 867 ;
C -1 ; WX 500 ; N _d_297 ; B 47 707 454 867 ;
C -1 ; WX 500 ; N _d_298 ; B 90 707 410 874 ;
C -1 ; WX 500 ; N _d_299 ; B 47 707 454 867 ;
C -1 ; WX 500 ; N _d_300 ; B 93 707 327 867 ;
C -1 ; WX 500 ; N _d_301 ; B 173 707 407 867 ;
C -1 ; WX 500 ; N _d_302 ; B 62 710 438 861 ;
C -1 ; WX 500 ; N _d_303 ; B 95 543 405 691 ;
C -1 ; WX 500 ; N _d_304 ; B 32 706 468 868 ;
C -1 ; WX 250 ; N _d_305 ; B 0 0 0 160 ;
EndCharMetrics
StartKernData
StartKernPairs 970
KPX comma one -125
KPX comma quotedblright -45
KPX comma quoteright -18
KPX hyphen A 6
KPX hyphen T -54
KPX hyphen V -19
KPX hyphen W -5
KPX hyphen Y -52
KPX hyphen Adieresis 6
KPX hyphen Aring 6
KPX hyphen AE -4
KPX hyphen Aacute 6
KPX period one -123
KPX period quotedblright -46
KPX period quoteright -14
KPX zero one -65
KPX zero four 16
KPX zero seven -14
KPX one comma -105
KPX one period -105
KPX one zero -106
KPX one one -173
KPX one two -104
KPX one three -116
KPX one four -91
KPX one five -108
KPX one six -112
KPX one seven -120
KPX one eight -114
KPX one nine -114
KPX two one -70
KPX two four 11
KPX two seven -18
KPX three one -84
KPX three four -2
KPX three seven -31
KPX four one -106
KPX four four 34
KPX four seven -54
KPX five one -74
KPX five four 3
KPX five seven -21
KPX six one -82
KPX six four 9
KPX six seven -29
KPX seven comma -144
KPX seven period -146
KPX seven one -76
KPX seven four -87
KPX seven six -22
KPX seven seven -25
KPX seven colon -56
KPX eight one -73
KPX eight four 8
KPX eight seven -21
KPX nine one -73
KPX nine four 8
KPX nine seven -21
KPX A comma 13
KPX A hyphen 3
KPX A period 13
KPX A C -8
KPX A G -2
KPX A O -8
KPX A Q -8
KPX A T -44
KPX A U -13
KPX A V -72
KPX A W -42
KPX A Y -64
KPX A a 0
KPX A b 27
KPX A c -4
KPX A d -2
KPX A e -6
KPX A g -6
KPX A o -3
KPX A q -3
KPX A t -21
KPX A u -8
KPX A v -50
KPX A w -21
KPX A y -16
KPX A Ccedilla -12
KPX A Odieresis -8
KPX A Udieresis -13
KPX A ccedilla -6
KPX A guillemotleft -19
KPX A quotedblright -74
KPX A quoteright 13
KPX A guilsinglleft -19
KPX A Uacute -13
KPX A Ucircumflex -13
KPX A Ugrave -13
KPX B A 8
KPX B O -1
KPX B V 1
KPX B W 3
KPX B Adieresis 8
KPX B Aring 8
KPX B Odieresis -1
KPX B AE -3
KPX B Oslash -1
KPX B Atilde 8
KPX B OE -1
KPX B Acircumflex 8
KPX B Aacute 8
KPX B Oacute -1
KPX B Ocircumflex -1
KPX B Ograve -1
KPX C A 37
KPX C H 3
KPX C K 3
KPX C O 6
KPX C Adieresis 37
KPX C Aring 37
KPX C Odieresis 6
KPX C AE 26
KPX C Aacute 37
KPX C Oacute 6
KPX D A 1
KPX D J 31
KPX D T 17
KPX D V -3
KPX D W 0
KPX D X -7
KPX D Y -6
KPX D Adieresis 1
KPX D Aring 1
KPX D Agrave 1
KPX D Atilde 1
KPX D Acircumflex 1
KPX D Aacute 1
KPX F comma -22
KPX F hyphen 32
KPX F period -27
KPX F A -23
KPX F J -16
KPX F O 17
KPX F a 7
KPX F e 9
KPX F i 9
KPX F j -27
KPX F o 10
KPX F r 1
KPX F u 3
KPX F Adieresis -23
KPX F Aring -23
KPX F Odieresis 17
KPX F aacute 7
KPX F adieresis 7
KPX F aring 7
KPX F eacute 9
KPX F oacute 10
KPX F odieresis 10
KPX F ae 7
KPX F oslash 10
KPX F Agrave -23
KPX F Atilde -23
KPX F oe 10
KPX F Acircumflex -23
KPX F Aacute -23
KPX G A 48
KPX G T 11
KPX G V 5
KPX G W 5
KPX G Y 10
KPX G Adieresis 48
KPX G Aring 48
KPX G AE 39
KPX G Agrave 48
KPX G Atilde 48
KPX G Acircumflex 48
KPX G Aacute 48
KPX J AE -11
KPX K hyphen -5
KPX K C -8
KPX K G 0
KPX K O -6
KPX K S 23
KPX K T -4
KPX K a 4
KPX K e -4
KPX K u -5
KPX K y -17
KPX K Odieresis -6
KPX K adieresis 4
KPX K aring 4
KPX K udieresis -5
KPX K ae 3
KPX K OE -8
KPX K Oacute -6
KPX L hyphen 23
KPX L A 48
KPX L C 18
KPX L G 19
KPX L O 17
KPX L S 25
KPX L T -60
KPX L U 13
KPX L V -56
KPX L W -32
KPX L Y -79
KPX L u 10
KPX L y 9
KPX L Adieresis 48
KPX L Aring 48
KPX L Ccedilla 15
KPX L Odieresis 17
KPX L Udieresis 13
KPX L udieresis 10
KPX L AE 38
KPX L Otilde 17
KPX L quotedblright -90
KPX L quoteright 7
KPX L Aacute 48
KPX L Oacute 17
KPX L Ocircumflex 17
KPX L Ograve 17
KPX N comma -8
KPX N period -8
KPX N A 34
KPX N C -1
KPX N O -1
KPX N a -4
KPX N e -3
KPX N o -2
KPX N u -2
KPX N Adieresis 34
KPX N Aring 34
KPX N Ccedilla -2
KPX N Odieresis -1
KPX N aacute -4
KPX N adieresis -4
KPX N aring -4
KPX N eacute -4
KPX N oacute -2
KPX N odieresis -2
KPX N udieresis -2
KPX N AE 24
KPX N ae -4
KPX N oslash -2
KPX N Aacute 34
KPX N Oacute -1
KPX O A 1
KPX O T 18
KPX O V -3
KPX O W 0
KPX O X -7
KPX O Y -6
KPX O Adieresis 1
KPX O Aring 1
KPX O AE -9
KPX O Aacute 1
KPX P comma -44
KPX P hyphen 27
KPX P period -49
KPX P A -41
KPX P J -39
KPX P a -3
KPX P e 6
KPX P o 8
KPX P Adieresis -41
KPX P Aring -41
KPX P aacute -3
KPX P adieresis -3
KPX P aring -3
KPX P eacute 6
KPX P oacute 8
KPX P odieresis 8
KPX P AE -53
KPX P ae -2
KPX P oslash 8
KPX P oe 7
KPX P Aacute -41
KPX R hyphen 15
KPX R C -2
KPX R G -2
KPX R O -2
KPX R T 19
KPX R U -7
KPX R V 0
KPX R W 2
KPX R a -3
KPX R e -4
KPX R o -3
KPX R u 0
KPX R y 0
KPX R Ccedilla -2
KPX R Odieresis -2
KPX R Udieresis -7
KPX R aacute -3
KPX R adieresis -3
KPX R aring -3
KPX R eacute -4
KPX R oacute -3
KPX R odieresis -3
KPX R uacute 0
KPX R udieresis 0
KPX R ae -3
KPX R OE -2
KPX R oe -3
KPX R Oacute -2
KPX S A 15
KPX S T 21
KPX S V 14
KPX S W 14
KPX S Y 19
KPX S t 17
KPX S Adieresis 15
KPX S Aring 15
KPX S AE 4
KPX S Aacute 15
KPX T comma -82
KPX T hyphen -54
KPX T period -82
KPX T colon -82
KPX T semicolon -83
KPX T A -32
KPX T C 18
KPX T G 20
KPX T J -44
KPX T O 18
KPX T S 27
KPX T V 35
KPX T W 35
KPX T Y 40
KPX T a -83
KPX T c -81
KPX T e -82
KPX T g -82
KPX T i 10
KPX T j -26
KPX T o -81
KPX T r -70
KPX T s -74
KPX T u -81
KPX T v -53
KPX T w -63
KPX T y -81
KPX T Adieresis -32
KPX T Aring -32
KPX T Odieresis 18
KPX T AE -42
KPX T Oslash 18
KPX T ae -83
KPX T oslash -81
KPX T guillemotleft -83
KPX T Agrave -32
KPX T Atilde -32
KPX T Otilde 18
KPX T OE 18
KPX T guilsinglleft -83
KPX T Acircumflex -32
KPX T Aacute -32
KPX T Oacute 18
KPX T Ocircumflex 18
KPX T Ograve 18
KPX U comma -15
KPX U period -15
KPX U A -1
KPX U m -3
KPX U n -3
KPX U p -1
KPX U r -3
KPX U Adieresis -1
KPX U Aring -1
KPX U AE -13
KPX U Atilde -1
KPX U Acircumflex -1
KPX U Aacute -1
KPX V comma -75
KPX V hyphen -17
KPX V period -77
KPX V colon -23
KPX V semicolon -21
KPX V A -65
KPX V G 5
KPX V O 0
KPX V S 13
KPX V T 47
KPX V a -30
KPX V e -31
KPX V g -26
KPX V i 24
KPX V o -28
KPX V r -11
KPX V u -9
KPX V y -7
KPX V Adieresis -65
KPX V Aring -65
KPX V Odieresis 0
KPX V AE -75
KPX V Oslash 2
KPX V ae -30
KPX V oslash -26
KPX V guillemotleft -45
KPX V Agrave -65
KPX V Atilde -65
KPX V Otilde 0
KPX V guilsinglleft -45
KPX V Acircumflex -65
KPX V Aacute -65
KPX V Oacute 0
KPX V Ocircumflex 0
KPX V Ograve 0
KPX W comma -51
KPX W hyphen 0
KPX W period -52
KPX W colon -14
KPX W semicolon -13
KPX W A -26
KPX W C 4
KPX W G 7
KPX W O 3
KPX W S 15
KPX W T 42
KPX W a -21
KPX W e -18
KPX W g -14
KPX W i 20
KPX W o -15
KPX W r -2
KPX W y 0
KPX W Adieresis -26
KPX W Aring -26
KPX W Odieresis 3
KPX W AE -36
KPX W Oslash 5
KPX W ae -21
KPX W oslash -14
KPX W guillemotleft -32
KPX W Agrave -26
KPX W Atilde -26
KPX W Otilde 3
KPX W guilsinglleft -32
KPX W Acircumflex -26
KPX W Aacute -26
KPX W Oacute 3
KPX W Ocircumflex 3
KPX W Ograve 3
KPX X hyphen -20
KPX X C -12
KPX X O -11
KPX X Q -11
KPX X a -2
KPX X e -11
KPX X o -8
KPX X u -12
KPX X y -25
KPX X Odieresis -11
KPX Y comma -102
KPX Y hyphen -51
KPX Y period -102
KPX Y colon -43
KPX Y semicolon -40
KPX Y A -52
KPX Y C -7
KPX Y G 2
KPX Y O -6
KPX Y S 8
KPX Y T 44
KPX Y a -50
KPX Y e -57
KPX Y g -51
KPX Y i 21
KPX Y o -54
KPX Y p -29
KPX Y u -29
KPX Y v -2
KPX Y Adieresis -52
KPX Y Aring -52
KPX Y Odieresis -6
KPX Y AE -62
KPX Y Oslash -1
KPX Y ae -50
KPX Y oslash -51
KPX Y guillemotleft -68
KPX Y Agrave -52
KPX Y Atilde -52
KPX Y Otilde -6
KPX Y guilsinglleft -68
KPX Y Acircumflex -52
KPX Y Aacute -52
KPX Y Oacute -6
KPX Y Ocircumflex -6
KPX Y Ograve -6
KPX Z v -6
KPX Z y -11
KPX a j -46
KPX a v -4
KPX a w -8
KPX a y -15
KPX a quoteright -10
KPX b v 3
KPX b w -1
KPX b y -10
KPX c h 2
KPX c k 2
KPX e t 14
KPX e v 4
KPX e x 16
KPX e y -9
KPX e quoteright -14
KPX f e 8
KPX f f 32
KPX f i 34
KPX f j -2
KPX f l 37
KPX f o 10
KPX f s 9
KPX f t 31
KPX f eacute 8
KPX f oacute 10
KPX f odieresis 10
KPX f ae 0
KPX f oslash 11
KPX f oe 10
KPX f quoteright -71
KPX g a -10
KPX g e -7
KPX g l -5
KPX g r -4
KPX g adieresis -10
KPX g aring -10
KPX g eacute -8
KPX g oacute -6
KPX g odieresis -6
KPX g ae -10
KPX h y -16
KPX h quoteright -10
KPX i T 10
KPX i j -46
KPX k comma 12
KPX k hyphen -11
KPX k period 12
KPX k a -3
KPX k e -11
KPX k g -11
KPX k o -7
KPX k s 20
KPX k u -8
KPX k aacute -3
KPX k adieresis -3
KPX k aring -3
KPX k eacute -11
KPX k oacute -7
KPX k odieresis -7
KPX k udieresis -8
KPX k ae -3
KPX l v 21
KPX l y -6
KPX m p -9
KPX m v -3
KPX m w -8
KPX m y -15
KPX n T -69
KPX n p -8
KPX n v -5
KPX n w -9
KPX n y -16
KPX n quoteright -10
KPX o T -80
KPX o t 14
KPX o v 4
KPX o x -8
KPX o y -9
KPX o quoteright -9
KPX p t 14
KPX p y -9
KPX q c -5
KPX q u 2
KPX r comma -100
KPX r hyphen 37
KPX r period -100
KPX r colon 5
KPX r semicolon 5
KPX r a 4
KPX r c 16
KPX r d 16
KPX r e 15
KPX r f 36
KPX r g 16
KPX r h 9
KPX r i 17
KPX r j -24
KPX r k 9
KPX r l 9
KPX r m 17
KPX r n 17
KPX r o 16
KPX r p 19
KPX r q 16
KPX r r 17
KPX r s 15
KPX r t 34
KPX r u 19
KPX r v 46
KPX r w 37
KPX r x 34
KPX r y 14
KPX r z 30
KPX r aacute 4
KPX r agrave 4
KPX r acircumflex 4
KPX r adieresis 4
KPX r aring 4
KPX r ccedilla 16
KPX r eacute 15
KPX r egrave 15
KPX r ecircumflex 15
KPX r oacute 16
KPX r ograve 16
KPX r ocircumflex 16
KPX r odieresis 16
KPX r ae 5
KPX r oslash 16
KPX r oe 16
KPX r quoteright -100
KPX s t 16
KPX s quoteright -5
KPX t colon 7
KPX t semicolon 7
KPX t S 25
KPX t a 19
KPX t e 16
KPX t h 14
KPX t o 18
KPX t aacute 19
KPX t adieresis 19
KPX t aring 19
KPX t eacute 16
KPX t oacute 18
KPX t odieresis 18
KPX t ae 19
KPX t quoteright 7
KPX u quoteright -12
KPX v comma -48
KPX v hyphen 11
KPX v period -50
KPX v colon 13
KPX v semicolon 13
KPX v a 6
KPX v c 1
KPX v e 0
KPX v g 4
KPX v l 17
KPX v o 1
KPX v aacute 6
KPX v agrave 6
KPX v acircumflex 6
KPX v adieresis 6
KPX v atilde 6
KPX v aring 6
KPX v eacute 0
KPX v egrave 0
KPX v ecircumflex 0
KPX v oacute 1
KPX v ograve 1
KPX v odieresis 1
KPX v ae 5
KPX v oslash 3
KPX w comma -37
KPX w hyphen 13
KPX w period -38
KPX w colon 12
KPX w semicolon 12
KPX w a 5
KPX w c -2
KPX w e -4
KPX w g 0
KPX w l 17
KPX w o -2
KPX w s -3
KPX w aacute 5
KPX w agrave 5
KPX w acircumflex 5
KPX w adieresis 5
KPX w atilde 5
KPX w aring 5
KPX w eacute -4
KPX w egrave -4
KPX w ecircumflex -4
KPX w oacute -2
KPX w ograve -2
KPX w odieresis -2
KPX w ae 5
KPX w oslash 0
KPX x a -1
KPX x c -10
KPX x e -11
KPX x o -8
KPX x q -8
KPX x eacute -11
KPX y comma -7
KPX y hyphen 25
KPX y period -7
KPX y colon -7
KPX y semicolon -7
KPX y a -5
KPX y c 0
KPX y e -2
KPX y g -1
KPX y l -1
KPX y o 0
KPX y aacute -5
KPX y agrave -5
KPX y acircumflex -5
KPX y adieresis -5
KPX y atilde -5
KPX y aring -5
KPX y eacute -3
KPX y egrave -3
KPX y ecircumflex -3
KPX y oacute -1
KPX y ograve -1
KPX y odieresis -1
KPX y ae -5
KPX y oslash -1
KPX Adieresis comma 13
KPX Adieresis hyphen 3
KPX Adieresis period 13
KPX Adieresis C -8
KPX Adieresis G -2
KPX Adieresis O -8
KPX Adieresis Q -8
KPX Adieresis T -44
KPX Adieresis U -13
KPX Adieresis V -72
KPX Adieresis W -42
KPX Adieresis Y -64
KPX Adieresis a 0
KPX Adieresis b 27
KPX Adieresis c -4
KPX Adieresis d -2
KPX Adieresis g -6
KPX Adieresis o -3
KPX Adieresis q -3
KPX Adieresis t -21
KPX Adieresis u -8
KPX Adieresis v -50
KPX Adieresis w -21
KPX Adieresis y -16
KPX Adieresis guillemotleft -19
KPX Adieresis quotedblright -74
KPX Adieresis quoteright 13
KPX Adieresis guilsinglleft -19
KPX Aring comma 13
KPX Aring hyphen 3
KPX Aring period 13
KPX Aring C -8
KPX Aring G -2
KPX Aring O -8
KPX Aring Q -8
KPX Aring T -44
KPX Aring U -13
KPX Aring V -72
KPX Aring W -42
KPX Aring Y -64
KPX Aring a 0
KPX Aring b 27
KPX Aring c -4
KPX Aring d -2
KPX Aring e -6
KPX Aring g -6
KPX Aring o -3
KPX Aring q -3
KPX Aring t -21
KPX Aring u -8
KPX Aring v -50
KPX Aring w -21
KPX Aring y -16
KPX Aring guillemotleft -19
KPX Aring quotedblright -74
KPX Aring quoteright 13
KPX Aring guilsinglleft -19
KPX Ccedilla A 31
KPX Odieresis A 1
KPX Odieresis T 18
KPX Odieresis V -3
KPX Odieresis W 0
KPX Odieresis X -7
KPX Odieresis Y -6
KPX Udieresis comma -15
KPX Udieresis period -15
KPX Udieresis A -1
KPX Udieresis b 13
KPX Udieresis m -3
KPX Udieresis n -3
KPX Udieresis p -1
KPX Udieresis r -3
KPX aacute v -4
KPX aacute w -8
KPX aacute y -16
KPX agrave v -4
KPX agrave w -8
KPX agrave y -16
KPX adieresis v -4
KPX adieresis w -8
KPX adieresis y -16
KPX aring v -4
KPX aring w -8
KPX aring y -16
KPX eacute v 4
KPX eacute y -9
KPX ecircumflex v 4
KPX ecircumflex y -9
KPX oacute v 4
KPX oacute y -9
KPX ograve v 4
KPX ograve y -9
KPX ocircumflex t 14
KPX odieresis t 14
KPX odieresis v 4
KPX odieresis x -8
KPX odieresis y -9
KPX Oslash A -1
KPX ae v 3
KPX ae w -1
KPX ae y -11
KPX guillemotright A -9
KPX guillemotright T -83
KPX guillemotright V -47
KPX guillemotright W -36
KPX guillemotright Y -68
KPX guillemotright Adieresis -9
KPX guillemotright Aring -9
KPX guillemotright AE -20
KPX guillemotright Aacute -9
KPX Agrave comma 13
KPX Agrave period 13
KPX Agrave C -8
KPX Agrave G -2
KPX Agrave O -8
KPX Agrave Q -8
KPX Agrave T -44
KPX Agrave U -13
KPX Agrave V -72
KPX Agrave W -42
KPX Agrave Y -64
KPX Atilde comma 13
KPX Atilde period 13
KPX Atilde C -8
KPX Atilde G -2
KPX Atilde O -8
KPX Atilde Q -8
KPX Atilde T -44
KPX Atilde U -13
KPX Atilde V -72
KPX Atilde W -42
KPX Atilde Y -64
KPX Otilde T 18
KPX Otilde V -3
KPX Otilde Y -6
KPX quotedblleft A -61
KPX quotedblleft T 7
KPX quotedblleft V -2
KPX quotedblleft W -2
KPX quotedblleft Y 2
KPX quotedblleft Adieresis -61
KPX quotedblleft Aring -61
KPX quotedblleft AE -73
KPX quotedblleft Aacute -61
KPX quotedblright A -76
KPX quotedblright T 8
KPX quotedblright V 12
KPX quotedblright W 12
KPX quotedblright Y 17
KPX quotedblright Adieresis -76
KPX quotedblright Aring -76
KPX quotedblright AE -88
KPX quotedblright Aacute -76
KPX quoteleft A -61
KPX quoteleft T 7
KPX quoteleft V -1
KPX quoteleft W -1
KPX quoteleft Y 3
KPX quoteleft Adieresis -61
KPX quoteleft Aring -61
KPX quoteleft AE -73
KPX quoteleft Aacute -61
KPX quoteright comma -18
KPX quoteright period -15
KPX quoteright A 23
KPX quoteright d -8
KPX quoteright o -9
KPX quoteright r -11
KPX quoteright s -5
KPX quoteright t -31
KPX quoteright v -46
KPX quoteright w -35
KPX quoteright y -20
KPX quoteright Adieresis 23
KPX quoteright Aring 23
KPX quoteright AE 14
KPX quoteright Aacute 23
KPX guilsinglright A -9
KPX guilsinglright T -83
KPX guilsinglright V -47
KPX guilsinglright W -36
KPX guilsinglright Y -68
KPX guilsinglright Adieresis -9
KPX guilsinglright Aring -9
KPX guilsinglright AE -19
KPX guilsinglright Aacute -9
KPX quotedblbase A 23
KPX quotedblbase T -84
KPX quotedblbase V -75
KPX quotedblbase W -55
KPX quotedblbase Y -104
KPX quotedblbase AE 13
KPX Acircumflex comma 13
KPX Acircumflex period 13
KPX Acircumflex C -8
KPX Acircumflex G -2
KPX Acircumflex O -8
KPX Acircumflex Q -8
KPX Acircumflex T -44
KPX Acircumflex U -13
KPX Acircumflex V -72
KPX Acircumflex W -42
KPX Acircumflex Y -64
KPX Aacute comma 13
KPX Aacute hyphen 3
KPX Aacute period 13
KPX Aacute C -8
KPX Aacute G -2
KPX Aacute O -8
KPX Aacute Q -8
KPX Aacute T -44
KPX Aacute U -13
KPX Aacute V -72
KPX Aacute W -42
KPX Aacute Y -64
KPX Aacute a 0
KPX Aacute b 27
KPX Aacute c -4
KPX Aacute d -2
KPX Aacute e -6
KPX Aacute g -6
KPX Aacute o -3
KPX Aacute q -3
KPX Aacute t -21
KPX Aacute u -8
KPX Aacute v -50
KPX Aacute w -21
KPX Aacute y -16
KPX Aacute guillemotleft -19
KPX Aacute quoteright 13
KPX Aacute guilsinglleft -19
KPX Oacute A 1
KPX Oacute T 18
KPX Oacute V -3
KPX Oacute W 0
KPX Oacute Y -6
KPX Ocircumflex T 18
KPX Ocircumflex V -3
KPX Ocircumflex Y -6
KPX Ograve T 18
KPX Ograve V -3
KPX Ograve Y -6
KPX Uacute comma -15
KPX Uacute period -15
KPX Uacute A -1
KPX Uacute m -3
KPX Uacute n -3
KPX Uacute p -1
KPX Uacute r -3
KPX Ucircumflex A -1
KPX Ugrave A -1
EndKernPairs
EndKernData
EndFontMetrics
